…
Extract a variable from a data frame and ask a summary 

```r
summary(mtcars$cyl) # use $ to extract variable from a data frame
#>    Min. 1st Qu.  Median    Mean 3rd Qu.    Max. 
#>   4.000   4.000   6.000   6.188   8.000   8.000
```

Now inspect a tibble


```r
library(ggplot2)
diamonds
#> # A tibble: 53,940 × 10
#>    carat cut     color clarity depth table price     x     y
#>    <dbl> <ord>   <ord> <ord>   <dbl> <dbl> <int> <dbl> <dbl>
#>  1  0.23 Ideal   E     SI2      61.5    55   326  3.95  3.98
#>  2  0.21 Premium E     SI1      59.8    61   326  3.89  3.84
#>  3  0.23 Good    E     VS1      56.9    65   327  4.05  4.07
#>  4  0.29 Premium I     VS2      62.4    58   334  4.2   4.23
#>  5  0.31 Good    J     SI2      63.3    58   335  4.34  4.35
#>  6  0.24 Very G… J     VVS2     62.8    57   336  3.94  3.96
#>  7  0.24 Very G… I     VVS1     62.3    57   336  3.95  3.98
#>  8  0.26 Very G… H     SI1      61.9    55   337  4.07  4.11
#>  9  0.22 Fair    E     VS2      65.1    61   337  3.87  3.78
#> 10  0.23 Very G… H     VS1      59.4    61   338  4     4.05
#> # ℹ 53,930 more rows
#> # ℹ 1 more variable: z <dbl>
…
