Part II: Data Wrangling | R Workshop
…
then subset

library(dplyr)
#> 
#> Attaching package: 'dplyr'
#> The following objects are masked from 'package:stats':
#> 
#>     filter, lag
#> The following objects are masked from 'package:base':
#> 
#>     intersect, setdiff, setequal, union
library(ggplot2)
diamonds %>% filter(cut == "Ideal")
#> # A tibble: 21,551 × 10
#>    carat cut   color clarity depth table price     x     y
#>    <dbl> <ord> <ord> <ord>   <dbl> <dbl> <int> <dbl> <dbl>
#>  1  0.23 Ideal E     SI2      61.5    55   326  3.95  3.98
#>  2  0.23 Ideal J     VS1      62.8    56   340  3.93  3.9 
#>  3  0.31 Ideal J     SI2      62.2    54   344  4.35  4.37
#>  4  0.3  Ideal I     SI2      62      54   348  4.31  4.34
#>  5  0.33 Ideal I     SI2      61.8    55   403  4.49  4.51
#>  6  0.33 Ideal I     SI2      61.2    56   403  4.49  4.5 
#>  7  0.33 Ideal J     SI1      61.1    56   403  4.49  4.55
#>  8  0.23 Ideal G     VS1      61.9    54   404  3.93  3.95
#>  9  0.32 Ideal I     SI1      60.9    55   404  4.45  4.48
#> 10  0.3  Ideal I     SI2      61      59   405  4.3   4.33
#> # ℹ 21,541 more rows
#> # ℹ 1 more variable: z <dbl>

Filter()

Extract rows that meet logical criteria. Here you go: - inspect the
diamonds data set - filter observations with cut equal to Ideal

filter(diamonds, cut == "Ideal")
#> # A tibble: 21,551 × 10
#>    carat cut   color clarity depth table price     x     y
#>    <dbl> <ord> <ord> <ord>   <dbl> <dbl> <int> <dbl> <dbl>
#>  1  0.23 Ideal E     SI2      61.5    55   326  3.95  3.98
#>  2  0.23 Ideal J     VS1      62.8    56   340  3.93  3.9 
#>  3  0.31 Ideal J     SI2      62.2    54   344  4.35  4.37
#>  4  0.3  Ideal I     SI2      62      54   348  4.31  4.34
#>  5  0.33 Ideal I     SI2      61.8    55   403  4.49  4.51
#>  6  0.33 Ideal I     SI2      61.2    56   403  4.49  4.5 
#>  7  0.33 Ideal J     SI1      61.1    56   403  4.49  4.55
#>  8  0.23 Ideal G     VS1      61.9    54   404  3.93  3.95
#>  9  0.32 Ideal I     SI1      60.9    55   404  4.45  4.48
#> 10  0.3  Ideal I     SI2      61      59   405  4.3   4.33
#> # ℹ 21,541 more rows
#> # ℹ 1 more variable: z <dbl>
…
Mutate()

Create new columns. Here you go: - inspect the diamonds data set -
create a new variable price_per_carat

mutate(diamonds, price_per_carat = price/carat)
#> # A tibble: 53,940 × 11
#>    carat cut     color clarity depth table price     x     y
#>    <dbl> <ord>   <ord> <ord>   <dbl> <dbl> <int> <dbl> <dbl>
#>  1  0.23 Ideal   E     SI2      61.5    55   326  3.95  3.98
#>  2  0.21 Premium E     SI1      59.8    61   326  3.89  3.84
#>  3  0.23 Good    E     VS1      56.9    65   327  4.05  4.07
#>  4  0.29 Premium I     VS2      62.4    58   334  4.2   4.23
#>  5  0.31 Good    J     SI2      63.3    58   335  4.34  4.35
#>  6  0.24 Very G… J     VVS2     62.8    57   336  3.94  3.96
#>  7  0.24 Very G… I     VVS1     62.3    57   336  3.95  3.98
#>  8  0.26 Very G… H     SI1      61.9    55   337  4.07  4.11
#>  9  0.22 Fair    E     VS2      65.1    61   337  3.87  3.78
#> 10  0.23 Very G… H     VS1      59.4    61   338  4     4.05
#> # ℹ 53,930 more rows
#> # ℹ 2 more variables: z <dbl>, price_per_carat <dbl>

Multistep operations

Use the %>% for multistep operations. Passes result on left into first
argument of function on right. Here you go:

diamonds %>% 
  mutate(price_per_carat = price/carat)  %>%
  filter(price_per_carat > 1500)
#> # A tibble: 52,821 × 11
#>    carat cut     color clarity depth table price     x     y
#>    <dbl> <ord>   <ord> <ord>   <dbl> <dbl> <int> <dbl> <dbl>
#>  1  0.21 Premium E     SI1      59.8    61   326  3.89  3.84
#>  2  0.22 Fair    E     VS2      65.1    61   337  3.87  3.78
#>  3  0.22 Premium F     SI1      60.4    61   342  3.88  3.84
#>  4  0.2  Premium E     SI2      60.2    62   345  3.79  3.75
#>  5  0.23 Very G… E     VS2      63.8    55   352  3.85  3.92
#>  6  0.23 Very G… H     VS1      61      57   353  3.94  3.96
#>  7  0.23 Very G… G     VVS2     60.4    58   354  3.97  4.01
#>  8  0.23 Very G… D     VS2      60.5    61   357  3.96  3.97
#>  9  0.23 Very G… F     VS1      60.9    57   357  3.96  3.99
#> 10  0.23 Very G… F     VS1      60      57   402  4     4.03
#> # ℹ 52,811 more rows
#> # ℹ 2 more variables: z <dbl>, price_per_carat <dbl>
…
#library(tidyverse)
library(tibble)
as_tibble(mtcars)
#> # A tibble: 32 × 11
#>      mpg   cyl  disp    hp  drat    wt  qsec    vs    am
#>    <dbl> <dbl> <dbl> <dbl> <dbl> <dbl> <dbl> <dbl> <dbl>
#>  1  21       6  160    110  3.9   2.62  16.5     0     1
#>  2  21       6  160    110  3.9   2.88  17.0     0     1
#>  3  22.8     4  108     93  3.85  2.32  18.6     1     1
#>  4  21.4     6  258    110  3.08  3.22  19.4     1     0
#>  5  18.7     8  360    175  3.15  3.44  17.0     0     0
#>  6  18.1     6  225    105  2.76  3.46  20.2     1     0
#>  7  14.3     8  360    245  3.21  3.57  15.8     0     0
#>  8  24.4     4  147.    62  3.69  3.19  20       1     0
#>  9  22.8     4  141.    95  3.92  3.15  22.9     1     0
#> 10  19.2     6  168.   123  3.92  3.44  18.3     1     0
#> # ℹ 22 more rows
#> # ℹ 2 more variables: gear <dbl>, carb <dbl>
…
The variable country in the gapminder data set is a factor variable.

What are the possible levels for country in the subset asia.

Is this the result you expected?

To add a level

levels(sex) <- c(levels(sex), 'x')

cut()

gapminder
#> # A tibble: 1,704 × 6
#>    country     continent  year lifeExp      pop gdpPercap
#>    <fct>       <fct>     <int>   <dbl>    <int>     <dbl>
#>  1 Afghanistan Asia       1952    28.8  8425333      779.
#>  2 Afghanistan Asia       1957    30.3  9240934      821.
#>  3 Afghanistan Asia       1962    32.0 10267083      853.
#>  4 Afghanistan Asia       1967    34.0 11537966      836.
#>  5 Afghanistan Asia       1972    36.1 13079460      740.
#>  6 Afghanistan Asia       1977    38.4 14880372      786.
#>  7 Afghanistan Asia       1982    39.9 12881816      978.
#>  8 Afghanistan Asia       1987    40.8 13867957      852.
#>  9 Afghanistan Asia       1992    41.7 16317921      649.
#> 10 Afghanistan Asia       1997    41.8 22227415      635.
#> # ℹ 1,694 more rows

head(cut(gapminder$pop,
    breaks = c(0, 10^7, 5*10^7, 10^8, Inf)))
#> [1] (0,1e+07]     (0,1e+07]     (1e+07,5e+07] (1e+07,5e+07]
#> [5] (1e+07,5e+07] (1e+07,5e+07]
#> 4 Levels: (0,1e+07] (1e+07,5e+07] ... (1e+08,Inf]

gapminder$pop_category = cut(gapminder$pop,
                             breaks = c(0, 10^7, 5*10^7, 10^8, Inf),
                             labels = c("<= 10M", "10M-50M", "50M-100M", "> 100M"))

gapminder
#> # A tibble: 1,704 × 7
#>    country     continent  year lifeExp      pop gdpPercap
#>    <fct>       <fct>     <int>   <dbl>    <int>     <dbl>
#>  1 Afghanistan Asia       1952    28.8  8425333      779.
#>  2 Afghanistan Asia       1957    30.3  9240934      821.
#>  3 Afghanistan Asia       1962    32.0 10267083      853.
#>  4 Afghanistan Asia       1967    34.0 11537966      836.
#>  5 Afghanistan Asia       1972    36.1 13079460      740.
#>  6 Afghanistan Asia       1977    38.4 14880372      786.
#>  7 Afghanistan Asia       1982    39.9 12881816      978.
#>  8 Afghanistan Asia       1987    40.8 13867957      852.
#>  9 Afghanistan Asia       1992    41.7 16317921      649.
#> 10 Afghanistan Asia       1997    41.8 22227415      635.
#> # ℹ 1,694 more rows
#> # ℹ 1 more variable: pop_category <fct>
…
